^C:\USERS\KRISTIJAN CEPLE\SOURCE\REPOS\OOP_LAB\DEBUG\J_CLL.OBJ|C:\USERS\KRISTIJAN CEPLE\SOURCE\REPOS\OOP_LAB\DEBUG\MAIN.OBJ|C:\USERS\KRISTIJAN CEPLE\SOURCE\REPOS\OOP_LAB\DEBUG\NODE.OBJ
C:\USERS\KRISTIJAN CEPLE\SOURCE\REPOS\OOP_LAB\DEBUG\OOP_LAB.EXE
C:\USERS\KRISTIJAN CEPLE\SOURCE\REPOS\OOP_LAB\DEBUG\OOP_LAB.ILK
C:\USERS\KRISTIJAN CEPLE\SOURCE\REPOS\OOP_LAB\DEBUG\OOP_LAB.PDB
