^C:\USERS\KRISTIJAN CEPLE\SOURCE\REPOS\OOP_LAB\J_CLL.CPP
/c /Zi /nologo /W3 /WX- /diagnostics:column /sdl /O2 /Oi /GL /D NDEBUG /D _CONSOLE /D _UNICODE /D UNICODE /Gm- /EHsc /MD /GS /Gy /fp:precise /permissive- /Zc:wchar_t /Zc:forScope /Zc:inline /std:c++17 /Fo"X64\RELEASE\\" /Fd"X64\RELEASE\VC142.PDB" /Gd /TP /FC C:\USERS\KRISTIJAN CEPLE\SOURCE\REPOS\OOP_LAB\J_CLL.CPP
^C:\USERS\KRISTIJAN CEPLE\SOURCE\REPOS\OOP_LAB\NODE.CPP
/c /Zi /nologo /W3 /WX- /diagnostics:column /sdl /O2 /Oi /GL /D NDEBUG /D _CONSOLE /D _UNICODE /D UNICODE /Gm- /EHsc /MD /GS /Gy /fp:precise /permissive- /Zc:wchar_t /Zc:forScope /Zc:inline /std:c++17 /Fo"X64\RELEASE\\" /Fd"X64\RELEASE\VC142.PDB" /Gd /TP /FC C:\USERS\KRISTIJAN CEPLE\SOURCE\REPOS\OOP_LAB\NODE.CPP
^C:\USERS\KRISTIJAN CEPLE\SOURCE\REPOS\OOP_LAB\MAIN.CPP
/c /Zi /nologo /W3 /WX- /diagnostics:column /sdl /O2 /Oi /GL /D NDEBUG /D _CONSOLE /D _UNICODE /D UNICODE /Gm- /EHsc /MD /GS /Gy /fp:precise /permissive- /Zc:wchar_t /Zc:forScope /Zc:inline /std:c++17 /Fo"X64\RELEASE\\" /Fd"X64\RELEASE\VC142.PDB" /Gd /TP /FC C:\USERS\KRISTIJAN CEPLE\SOURCE\REPOS\OOP_LAB\MAIN.CPP
