^C:\USERS\KRISTIJAN CEPLE\SOURCE\REPOS\OOP_LAB\J_CLL.CPP|C:\USERS\KRISTIJAN CEPLE\SOURCE\REPOS\OOP_LAB\MAIN.CPP|C:\USERS\KRISTIJAN CEPLE\SOURCE\REPOS\OOP_LAB\NODE.CPP
C:\USERS\KRISTIJAN CEPLE\SOURCE\REPOS\OOP_LAB\X64\RELEASE\VC142.PDB
C:\USERS\KRISTIJAN CEPLE\SOURCE\REPOS\OOP_LAB\X64\RELEASE\NODE.OBJ
C:\USERS\KRISTIJAN CEPLE\SOURCE\REPOS\OOP_LAB\X64\RELEASE\MAIN.OBJ
C:\USERS\KRISTIJAN CEPLE\SOURCE\REPOS\OOP_LAB\X64\RELEASE\J_CLL.OBJ
^C:\USERS\KRISTIJAN CEPLE\SOURCE\REPOS\OOP_LAB\J_CLL.CPP
C:\USERS\KRISTIJAN CEPLE\SOURCE\REPOS\OOP_LAB\X64\RELEASE\VC142.PDB
^C:\USERS\KRISTIJAN CEPLE\SOURCE\REPOS\OOP_LAB\NODE.CPP
C:\USERS\KRISTIJAN CEPLE\SOURCE\REPOS\OOP_LAB\X64\RELEASE\VC142.PDB
^C:\USERS\KRISTIJAN CEPLE\SOURCE\REPOS\OOP_LAB\MAIN.CPP
C:\USERS\KRISTIJAN CEPLE\SOURCE\REPOS\OOP_LAB\X64\RELEASE\VC142.PDB
C:\USERS\KRISTIJAN CEPLE\SOURCE\REPOS\OOP_LAB\X64\RELEASE\MAIN.OBJ
