^C:\Users\Kristijan Ceple\source\repos\OOP_Lab\OOP_Lab.vcxproj
C:\Users\Kristijan Ceple\source\repos\OOP_Lab\x64\Release\OOP_Lab.ipdb
C:\Users\Kristijan Ceple\source\repos\OOP_Lab\x64\Release\OOP_Lab.iobj
^C:\Users\Kristijan Ceple\source\repos\OOP_Lab\OOP_Lab.vcxproj
C:\Users\Kristijan Ceple\source\repos\OOP_Lab\x64\Release\OOP_Lab.ipdb
C:\Users\Kristijan Ceple\source\repos\OOP_Lab\x64\Release\OOP_Lab.iobj
^C:\Users\Kristijan Ceple\source\repos\OOP_Lab\OOP_Lab.vcxproj
C:\Users\Kristijan Ceple\source\repos\OOP_Lab\x64\Release\OOP_Lab.ipdb
C:\Users\Kristijan Ceple\source\repos\OOP_Lab\x64\Release\OOP_Lab.iobj
^C:\Users\Kristijan Ceple\source\repos\OOP_Lab\OOP_Lab.vcxproj
C:\Users\Kristijan Ceple\source\repos\OOP_Lab\x64\Release\OOP_Lab.ipdb
C:\Users\Kristijan Ceple\source\repos\OOP_Lab\x64\Release\OOP_Lab.iobj
^C:\Users\Kristijan Ceple\source\repos\OOP_Lab\OOP_Lab.vcxproj
C:\Users\Kristijan Ceple\source\repos\OOP_Lab\x64\Release\OOP_Lab.ipdb
C:\Users\Kristijan Ceple\source\repos\OOP_Lab\x64\Release\OOP_Lab.iobj
^C:\Users\Kristijan Ceple\source\repos\OOP_Lab\OOP_Lab.vcxproj
C:\Users\Kristijan Ceple\source\repos\OOP_Lab\x64\Release\OOP_Lab.ipdb
C:\Users\Kristijan Ceple\source\repos\OOP_Lab\x64\Release\OOP_Lab.iobj
^C:\Users\Kristijan Ceple\source\repos\OOP_Lab\OOP_Lab.vcxproj
C:\Users\Kristijan Ceple\source\repos\OOP_Lab\x64\Release\OOP_Lab.ipdb
C:\Users\Kristijan Ceple\source\repos\OOP_Lab\x64\Release\OOP_Lab.iobj
^C:\Users\Kristijan Ceple\source\repos\OOP_Lab\OOP_Lab.vcxproj
C:\Users\Kristijan Ceple\source\repos\OOP_Lab\x64\Release\OOP_Lab.ipdb
C:\Users\Kristijan Ceple\source\repos\OOP_Lab\x64\Release\OOP_Lab.iobj
^C:\Users\Kristijan Ceple\source\repos\OOP_Lab\OOP_Lab.vcxproj
C:\Users\Kristijan Ceple\source\repos\OOP_Lab\x64\Release\OOP_Lab.ipdb
C:\Users\Kristijan Ceple\source\repos\OOP_Lab\x64\Release\OOP_Lab.iobj
^C:\Users\Kristijan Ceple\source\repos\OOP_Lab\OOP_Lab.vcxproj
C:\Users\Kristijan Ceple\source\repos\OOP_Lab\x64\Release\OOP_Lab.ipdb
C:\Users\Kristijan Ceple\source\repos\OOP_Lab\x64\Release\OOP_Lab.iobj
^C:\Users\Kristijan Ceple\source\repos\OOP_Lab\OOP_Lab.vcxproj
C:\Users\Kristijan Ceple\source\repos\OOP_Lab\x64\Release\OOP_Lab.ipdb
C:\Users\Kristijan Ceple\source\repos\OOP_Lab\x64\Release\OOP_Lab.iobj
^C:\Users\Kristijan Ceple\source\repos\OOP_Lab\OOP_Lab.vcxproj
C:\Users\Kristijan Ceple\source\repos\OOP_Lab\x64\Release\OOP_Lab.ipdb
C:\Users\Kristijan Ceple\source\repos\OOP_Lab\x64\Release\OOP_Lab.iobj
^C:\Users\Kristijan Ceple\source\repos\OOP_Lab\OOP_Lab.vcxproj
C:\Users\Kristijan Ceple\source\repos\OOP_Lab\x64\Release\OOP_Lab.ipdb
C:\Users\Kristijan Ceple\source\repos\OOP_Lab\x64\Release\OOP_Lab.iobj
^C:\Users\Kristijan Ceple\source\repos\OOP_Lab\OOP_Lab.vcxproj
C:\Users\Kristijan Ceple\source\repos\OOP_Lab\x64\Release\OOP_Lab.ipdb
C:\Users\Kristijan Ceple\source\repos\OOP_Lab\x64\Release\OOP_Lab.iobj
^C:\Users\Kristijan Ceple\source\repos\OOP_Lab\OOP_Lab.vcxproj
C:\Users\Kristijan Ceple\source\repos\OOP_Lab\x64\Release\OOP_Lab.ipdb
C:\Users\Kristijan Ceple\source\repos\OOP_Lab\x64\Release\OOP_Lab.iobj
^C:\Users\Kristijan Ceple\source\repos\OOP_Lab\OOP_Lab.vcxproj
C:\Users\Kristijan Ceple\source\repos\OOP_Lab\x64\Release\OOP_Lab.ipdb
C:\Users\Kristijan Ceple\source\repos\OOP_Lab\x64\Release\OOP_Lab.iobj
