^C:\USERS\KRISTIJAN CEPLE\SOURCE\REPOS\OOP_LAB\J_CLL.CPP
/c /I"C:\USERS\KRISTIJAN CEPLE\DESKTOP\FAKSHUB\C++\VCPKG\VCPKG\INSTALLED\X64-WINDOWS\INCLUDE" /ZI /JMC /nologo /W3 /WX- /diagnostics:column /sdl /Od /D _DEBUG /D _CONSOLE /D _UNICODE /D UNICODE /Gm- /EHsc /RTC1 /MDd /GS /fp:precise /permissive- /Zc:wchar_t /Zc:forScope /Zc:inline /std:c++17 /Fo"X64\DEBUG\\" /Fd"X64\DEBUG\VC142.PDB" /Gd /TP /FC C:\USERS\KRISTIJAN CEPLE\SOURCE\REPOS\OOP_LAB\J_CLL.CPP
^C:\USERS\KRISTIJAN CEPLE\SOURCE\REPOS\OOP_LAB\NODE.CPP
/c /I"C:\USERS\KRISTIJAN CEPLE\DESKTOP\FAKSHUB\C++\VCPKG\VCPKG\INSTALLED\X64-WINDOWS\INCLUDE" /ZI /JMC /nologo /W3 /WX- /diagnostics:column /sdl /Od /D _DEBUG /D _CONSOLE /D _UNICODE /D UNICODE /Gm- /EHsc /RTC1 /MDd /GS /fp:precise /permissive- /Zc:wchar_t /Zc:forScope /Zc:inline /std:c++17 /Fo"X64\DEBUG\\" /Fd"X64\DEBUG\VC142.PDB" /Gd /TP /FC C:\USERS\KRISTIJAN CEPLE\SOURCE\REPOS\OOP_LAB\NODE.CPP
^C:\USERS\KRISTIJAN CEPLE\SOURCE\REPOS\OOP_LAB\MAIN.CPP
/c /I"C:\USERS\KRISTIJAN CEPLE\DESKTOP\FAKSHUB\C++\VCPKG\VCPKG\INSTALLED\X64-WINDOWS\INCLUDE" /ZI /JMC /nologo /W3 /WX- /diagnostics:column /sdl /Od /D _DEBUG /D _CONSOLE /D _UNICODE /D UNICODE /Gm- /EHsc /RTC1 /MDd /GS /fp:precise /permissive- /Zc:wchar_t /Zc:forScope /Zc:inline /std:c++17 /Fo"X64\DEBUG\\" /Fd"X64\DEBUG\VC142.PDB" /Gd /TP /FC C:\USERS\KRISTIJAN CEPLE\SOURCE\REPOS\OOP_LAB\MAIN.CPP
